Tidymodels : Exploring iris | Saif
…
Regular Grid
With those insights, lets run through a more controlled grid with 50 combinations.

rf_grid<-grid_regular(
    mtry(range=c(2,3)),
    trees(range=c(1000,1500)),
    min_n(range=c(3,10)),
    levels = 5
)

rf_grid

## # A tibble: 50 x 3
##     mtry trees min_n
##    <int> <int> <int>
##  1     2  1000     3
##  2     3  1000     3
##  3     2  1125     3
##  4     3  1125     3
##  5     2  1250     3
##  6     3  1250     3
##  7     2  1375     3
##  8     3  1375     3
##  9     2  1500     3
## 10     3  1500     3
## # ... with 40 more rows
…
## # A tibble: 2 x 3
##   .metric  .estimator .estimate
##   <chr>    <chr>          <dbl>
## 1 accuracy multiclass     0.865
## 2 roc_auc  hand_till      0.948
Looking at the AUC curve and confusion matrix, we see that setosa is perfectly detected while we were subpar in detecting versicolor and virginica.

rf_preds<-rf_fit%>%
    collect_predictions()

rf_preds

## # A tibble: 37 x 7
##    id    .pred_setosa .pred_versicolor .pred_virginica  .row .pred_class Species
##    <chr>        <dbl>            <dbl>           <dbl> <int> <fct>       <fct>  
##  1 trai~            1                0               0     1 setosa      setosa 
##  2 trai~            1                0               0    25 setosa      setosa 
##  3 trai~            1                0               0    26 setosa      setosa 
##  4 trai~            1                0               0    28 setosa      setosa 
##  5 trai~            1                0               0    30 setosa      setosa 
##  6 trai~            1                0               0    37 setosa      setosa 
##  7 trai~            1                0               0    38 setosa      setosa 
##  8 trai~            1                0               0    40 setosa      setosa 
##  9 trai~            1                0               0    41 setosa      setosa 
## 10 trai~            1                0               0    45 setosa      setosa 
## # ... with 27 more rows
…
